Homework 2
…
1.2 Explore the data

1.2.1 Specific
questions

Generate a data frame that summarizes the number of mass shootings
per year.

mass_shootings %>% 
  count(year)

## # A tibble: 37 x 2
##     year     n
##    <dbl> <int>
##  1  1982     1
##  2  1984     2
##  3  1986     1
##  4  1987     1
##  5  1988     1
##  6  1989     2
##  7  1990     1
##  8  1991     3
##  9  1992     2
## 10  1993     4
## # i 27 more rows
…
